Biostat 203B Homework 2
…
Import icustatys.csv.gz as a tibble icustays_tble.

 system.time(icustays_tble<-
               read_csv(str_c(mimic_path, "/icu/icustays.csv.gz"))%>%
  print(width=Inf)
 ) 

# A tibble: 76,540 × 8
   subject_id  hadm_id  stay_id first_careunit          
        <dbl>    <dbl>    <dbl> <chr>                   
 1   17867402 24528534 31793211 Trauma SICU (TSICU)     
 2   14435996 28960964 31983544 Trauma SICU (TSICU)     
 3   17609946 27385897 33183475 Trauma SICU (TSICU)     
 4   18966770 23483021 34131444 Trauma SICU (TSICU)     
 5   12776735 20817525 34547665 Neuro Stepdown          
 6   10215159 24283593 34569476 Trauma SICU (TSICU)     
 7   14489052 26516390 35056286 Trauma SICU (TSICU)     
 8   15914763 28906020 36909804 Trauma SICU (TSICU)     
 9   16256226 20013290 39289362 Neuro Stepdown          
10   19194449 21641999 39387567 Coronary Care Unit (CCU)
   last_careunit            intime              outtime               los
   <chr>                    <dttm>              <dttm>              <dbl>
 1 Trauma SICU (TSICU)      2154-03-03 04:11:00 2154-03-04 18:16:56 1.59 
 2 Trauma SICU (TSICU)      2150-06-19 17:57:00 2150-06-22 18:33:54 3.03 
 3 Trauma SICU (TSICU)      2138-02-05 18:54:00 2138-02-15 12:42:05 9.74 
 4 Trauma SICU (TSICU)      2123-10-25 10:35:00 2123-10-25 18:59:47 0.351
 5 Neuro Stepdown           2200-07-12 00:33:00 2200-07-13 16:44:40 1.67 
 6 Trauma SICU (TSICU)      2124-09-20 15:05:29 2124-09-21 22:06:58 1.29 
 7 Trauma SICU (TSICU)      2118-10-26 10:33:56 2118-10-26 20:28:10 0.413
 8 Trauma SICU (TSICU)      2176-12-14 12:00:00 2176-12-17 11:47:01 2.99 
 9 Neuro Stepdown           2150-12-20 16:09:08 2150-12-21 14:58:40 0.951
10 Coronary Care Unit (CCU) 2123-11-12 02:53:35 2123-11-12 13:52:03 0.457
# … with 76,530 more rows
…
For each subject_id, let’s only keep the first ICU stay in the tibble icustays_tble. (Hint: slice_min and slice_max may take long. Think alternative ways to achieve the same function.)

icustays_tble <- icustays_tble %>%
  arrange(subject_id, intime) %>%
  distinct(subject_id, .keep_all = TRUE) %>%
  print(width = Inf)

# A tibble: 53,150 × 8
   subject_id  hadm_id  stay_id first_careunit                                  
        <dbl>    <dbl>    <dbl> <chr>                                           
 1   10000032 29079034 39553978 Medical Intensive Care Unit (MICU)              
 2   10000980 26913865 39765666 Medical Intensive Care Unit (MICU)              
 3   10001217 24597018 37067082 Surgical Intensive Care Unit (SICU)             
 4   10001725 25563031 31205490 Medical/Surgical Intensive Care Unit (MICU/SICU)
 5   10001884 26184834 37510196 Medical Intensive Care Unit (MICU)              
 6   10002013 23581541 39060235 Cardiac Vascular Intensive Care Unit (CVICU)    
 7   10002155 23822395 33685454 Coronary Care Unit (CCU)                        
 8   10002223 22494570 39638202 Trauma SICU (TSICU)                             
 9   10002348 22725460 32610785 Neuro Intermediate                              
10   10002428 28662225 33987268 Medical Intensive Care Unit (MICU)              
   last_careunit                                    intime             
   <chr>                                            <dttm>             
 1 Medical Intensive Care Unit (MICU)               2180-07-23 14:00:00
 2 Medical Intensive Care Unit (MICU)               2189-06-27 08:42:00
 3 Surgical Intensive Care Unit (SICU)              2157-11-20 19:18:02
 4 Medical/Surgical Intensive Care Unit (MICU/SICU) 2110-04-11 15:52:22
 5 Medical Intensive Care Unit (MICU)               2131-01-11 04:20:05
 6 Cardiac Vascular Intensive Care Unit (CVICU)     2160-05-18 10:00:53
 7 Coronary Care Unit (CCU)                         2129-08-04 12:45:00
 8 Trauma SICU (TSICU)                              2158-01-15 08:01:49
 9 Neuro Intermediate                               2112-11-30 23:24:00
10 Medical Intensive Care Unit (MICU)               2156-04-12 16:24:18
   outtime               los
   <dttm>              <dbl>
 1 2180-07-23 23:50:47 0.410
 2 2189-06-27 20:38:27 0.498
 3 2157-11-21 22:08:00 1.12 
 4 2110-04-12 23:59:56 1.34 
 5 2131-01-20 08:27:30 9.17 
 6 2160-05-19 17:33:33 1.31 
 7 2129-08-10 17:02:38 6.18 
 8 2158-01-16 15:19:24 1.30 
 9 2112-12-10 18:25:13 9.79 
10 2156-04-17 15:57:08 4.98 
# … with 53,140 more rows
…
Import admissions.csv.gz as a tibble admissions_tble.

 system.time(admissions_tble<-
               read_csv(str_c(mimic_path, "/core/admissions.csv.gz"))%>%
  print(width=Inf)
 ) 

# A tibble: 523,740 × 15
   subject_id  hadm_id admittime           dischtime           deathtime
        <dbl>    <dbl> <dttm>              <dttm>              <dttm>   
 1   14679932 21038362 2139-09-26 14:16:00 2139-09-28 11:30:00 NA       
 2   15585972 24941086 2123-10-07 23:56:00 2123-10-12 11:22:00 NA       
 3   11989120 21965160 2147-01-14 09:00:00 2147-01-17 14:25:00 NA       
 4   17817079 24709883 2165-12-27 17:33:00 2165-12-31 21:18:00 NA       
 5   15078341 23272159 2122-08-28 08:48:00 2122-08-30 12:32:00 NA       
 6   19124609 20517215 2169-03-14 12:44:00 2169-03-20 19:15:00 NA       
 7   17301855 29732723 2140-06-06 14:23:00 2140-06-08 14:25:00 NA       
 8   17991012 24298836 2181-07-10 20:28:00 2181-07-12 15:49:00 NA       
 9   16865435 23216961 2185-07-19 02:12:00 2185-07-21 11:50:00 NA       
10   13693648 21640725 2111-01-30 23:43:00 2111-02-02 13:03:00 NA       
   admission_type admission_location discharge_location insurance language
   <chr>          <chr>              <chr>              <chr>     <chr>   
 1 ELECTIVE       <NA>               HOME               Other     ENGLISH 
 2 ELECTIVE       <NA>               HOME               Other     ENGLISH 
 3 ELECTIVE       <NA>               HOME               Other     ENGLISH 
 4 ELECTIVE       <NA>               HOME               Other     ENGLISH 
 5 ELECTIVE       <NA>               HOME               Other     ENGLISH 
 6 ELECTIVE       <NA>               HOME               Other     ENGLISH 
 7 ELECTIVE       <NA>               HOME               Other     ENGLISH 
 8 ELECTIVE       <NA>               HOME               Other     ENGLISH 
 9 ELECTIVE       <NA>               HOME               Other     ENGLISH 
10 ELECTIVE       <NA>               HOME               Other     ENGLISH 
   marital_status ethnicity              edregtime edouttime
   <chr>          <chr>                  <dttm>    <dttm>   
 1 SINGLE         UNKNOWN                NA        NA       
 2 <NA>           WHITE                  NA        NA       
 3 <NA>           UNKNOWN                NA        NA       
 4 <NA>           OTHER                  NA        NA       
 5 <NA>           BLACK/AFRICAN AMERICAN NA        NA       
 6 <NA>           UNKNOWN                NA        NA       
 7 <NA>           WHITE                  NA        NA       
 8 <NA>           WHITE                  NA        NA       
 9 <NA>           WHITE                  NA        NA       
10 <NA>           WHITE                  NA        NA       
   hospital_expire_flag
                  <dbl>
 1                    0
 2                    0
 3                    0
 4                    0
 5                    0
 6                    0
 7                    0
 8                    0
 9                    0
10                    0
# … with 523,730 more rows
…
Import patients.csv.gz (https://mimic.mit.edu/docs/iv/modules/hosp/patients/) as a tibble patients_tble and only keep the patients who have a match in icustays_tble (according to subject_id).

patients_tble <-
  read_csv(str_c(mimic_path, "/core/patients.csv.gz")) %>%
  semi_join(icustays_tble, by = "subject_id") %>%
  print(width = Inf)

# A tibble: 53,150 × 6
   subject_id gender anchor_age anchor_year anchor_year_group dod       
        <dbl> <chr>       <dbl>       <dbl> <chr>             <date>    
 1   10018928 F              31        2125 2008 - 2010       NA        
 2   10076543 F              78        2187 2008 - 2010       NA        
 3   10098428 F              85        2119 2008 - 2010       NA        
 4   10127185 M              60        2141 2008 - 2010       NA        
 5   10148710 M              67        2137 2008 - 2010       NA        
 6   10156486 F              75        2124 2017 - 2019       NA        
 7   10159585 M              59        2146 2008 - 2010       2154-04-16
 8   10171525 F              27        2115 2014 - 2016       NA        
 9   10196360 M              57        2118 2011 - 2013       NA        
10   10227823 M              45        2156 2014 - 2016       NA        
# … with 53,140 more rows
…
           col_types = cols_only(subject_id = col_double(), 
                                 itemid = col_double(), 
                                 charttime = col_datetime(), 
                                 valuenum = col_double()),
           lazy = TRUE)
d_labitems_tble <- read_csv(str_c(mimic_path,"/hosp/d_labitems.csv.gz"))
choice_lab <- c("50912", "50971", "50983", "50902", "50882", 
                "51221", "51301", "50931", "50960", "50893")
labevents_tble <- labevents_modified
labevents_tble <- labevents_tble %>%
  arrange(subject_id, itemid) %>%
  semi_join(icustays_tble, by = c("subject_id")) %>%
  print(width = Inf)

# A tibble: 16,698,462 × 4
   subject_id itemid charttime           valuenum
        <dbl>  <dbl> <dttm>                 <dbl>
 1   10000032  50882 2180-03-23 11:51:00       27
 2   10000032  50882 2180-05-06 22:25:00       27
 3   10000032  50882 2180-05-07 05:05:00       28
 4   10000032  50882 2180-06-03 12:00:00       28
 5   10000032  50882 2180-06-03 12:00:00       29
 6   10000032  50882 2180-06-22 11:15:00       26
 7   10000032  50882 2180-06-26 16:10:00       26
 8   10000032  50882 2180-06-27 05:10:00       25
 9   10000032  50882 2180-07-23 06:39:00       25
10   10000032  50882 2180-07-23 21:45:00       21
# … with 16,698,452 more rows
Further restrict labevents_tble to the first lab measurement during the ICU stay.

labevents_tblem<-labevents_tble %>%
left_join(select(icustays_tble, subject_id, intime, outtime),by = "subject_id") %>%
filter(charttime >= intime & charttime <= outtime) %>%
group_by(subject_id,itemid) %>%
arrange(charttime, .by_group = TRUE) %>%
slice_head(n = 1) %>%
ungroup() %>%
select(-intime, -outtime, -charttime,) %>%
pivot_wider(names_from = itemid, values_from = valuenum) %>%
rename('bicarbonate' = '50882','creatinine' = '50912','potassium' = '50971', 'sodium' = '50983','chloride' = '50902','hematocrit' = '51221','n_wb_cell' = '51301', 'glucose' = '50931') %>%
  print(width=Inf)

# A tibble: 51,623 × 11
   subject_id bicarbonate `50893` chloride creatinine glucose `50960` potassium
        <dbl>       <dbl>   <dbl>    <dbl>      <dbl>   <dbl>   <dbl>     <dbl>
 1   10000032          21     9.3      102        0.5     115     2.3       4.7
 2   10001217          23     8.2      104        0.4     113     1.9       3.6
 3   10001725          24     9.1      106        0.8     146     1.5       3.9
 4   10001884          33     9.8       96        1.1     148     2.2       4  
 5   10002013          23    NA        109        1.1      98     2.1       4  
 6   10002155          25     8.8      106        0.9      95     2         4.5
 7   10002223          26     8.7      102        0.8      88     2         3.9
 8   10002348          23     9.4      107        0.8     127     1.6       4.8
 9   10002428          20     7.4       98        0.8      99     1.4       3.9
10   10002430          22     9.2      105        2.2     128     2.3       3.8
   sodium hematocrit n_wb_cell
    <dbl>      <dbl>     <dbl>
 1    132       NA        NA  
 2    138       33.6      19  
 3    140       39.1      17  
 4    136       36        18.4
 5    140       28.6      18.2
 6    139       37.9       5.5
 7    138       32.5      10.1
 8    142       39.3       4.3
 9    129       28.7      22.4
10    144       36.6      10.3
# … with 51,613 more rows
…
                                 hadm_id = col_double(),
                                 itemid = col_double(),
                                 itemid = col_double(), 
                                 charttime = col_datetime(), 
                                 valuenum = col_double()),
           lazy = TRUE)
d_items_tble <- read_csv(str_c(mimic_path,"/icu/d_items.csv.gz"))
choice2 <- c("220045", "220181", "220179", "223761", "220210")
chartevents_tble <- chartevents_modified
chartevents_tble <- chartevents_tble %>%
  semi_join(icustays_tble, by = c("subject_id")) %>%
  left_join(select(d_items_tble, itemid, label), by = c("itemid")) %>%
  print(width = Inf)

# A tibble: 23,679,058 × 6
   subject_id  hadm_id charttime           itemid valuenum
        <dbl>    <dbl> <dttm>               <dbl>    <dbl>
 1   10003700 28623837 2165-04-24 05:28:00 220179    152  
 2   10003700 28623837 2165-04-24 05:28:00 220181    110  
 3   10003700 28623837 2165-04-24 05:30:00 220045     65  
 4   10003700 28623837 2165-04-24 05:30:00 220210     14  
 5   10003700 28623837 2165-04-24 05:38:00 223761     97.6
 6   10003700 28623837 2165-04-24 06:00:00 220045     56  
 7   10003700 28623837 2165-04-24 06:00:00 220179    126  
 8   10003700 28623837 2165-04-24 06:00:00 220181     88  
 9   10003700 28623837 2165-04-24 06:00:00 220210     14  
10   10003700 28623837 2165-04-24 06:09:00 220045     55  
   label                               
   <chr>                               
 1 Non Invasive Blood Pressure systolic
 2 Non Invasive Blood Pressure mean    
 3 Heart Rate                          
 4 Respiratory Rate                    
 5 Temperature Fahrenheit              
 6 Heart Rate                          
 7 Non Invasive Blood Pressure systolic
 8 Non Invasive Blood Pressure mean    
 9 Respiratory Rate                    
10 Heart Rate                          
# … with 23,679,048 more rows
Further restrict chartevents_tble to the first vital measurement during the ICU stay.

chartevents_tblem <- chartevents_tble %>%
left_join(select(icustays_tble, subject_id, intime, outtime),by = "subject_id") %>%
filter(intime <= charttime & charttime <= outtime) %>%
group_by(subject_id,itemid) %>%
arrange(charttime,by_group = T) %>%
slice_head(n = 1) %>%
ungroup() %>%
select(c(subject_id, label, valuenum)) %>%
pivot_wider(names_from = label, values_from = valuenum) %>%
rename(HR = "Heart Rate", RR = "Respiratory Rate", Mean_BP = "Non Invasive Blood Pressure mean", Systolic_BP = "Non Invasive Blood Pressure systolic", BT = "Temperature Fahrenheit")  %>%
print(width=Inf)

# A tibble: 53,136 × 6
   subject_id    HR Systolic_BP Mean_BP    RR    BT
        <dbl> <dbl>       <dbl>   <dbl> <dbl> <dbl>
 1   10000032    91          84      56    24  98.7
 2   10000980    77         150      92    23  98  
 3   10001217    86         151     104    18  98.5
 4   10001725    55          73      59    19  97.7
 5   10001884    38         180      46    10  98.1
 6   10002013    80         104      77    14  97.2
 7   10002155    68         126      78    18  95.9
 8   10002223   100         123      80    29  98.6
 9   10002348    72         129      85    14  97.9
10   10002428   124          87      53    25 103. 
# … with 53,126 more rows
…
